17	41276135	T	G
17	41276135	T	C
17	41276135	T	A
17	41276134	T	G
17	41276134	T	C
17	41276134	T	A
17	41276133	C	T
17	41276133	C	G
17	41276133	C	A
17	41276132	A	T
17	41276132	A	G
17	41276132	A	C
17	41276131	A	T
17	41276131	A	G
17	41276131	A	C
17	41276130	G	T
17	41276130	G	C
17	41276130	G	A
17	41276129	T	G
17	41276129	T	C
17	41276129	T	A
17	41276128	A	T
17	41276128	A	C
17	41276127	A	T
17	41276127	A	G
17	41276127	A	C
17	41276126	C	T
17	41276126	C	G
17	41276126	C	A
17	41276125	C	T
17	41276125	C	G
17	41276125	C	A
17	41276124	T	G
17	41276124	T	C
17	41276124	T	A
17	41276123	T	G
17	41276123	T	C
17	41276123	T	A
17	41276122	G	T
17	41276122	G	C
17	41276122	G	A
17	41276121	T	G
17	41276121	T	C
17	41276121	T	A
17	41276120	C	T
17	41276120	C	G
17	41276120	C	A
17	41276119	T	G
17	41276119	T	C
17	41276119	T	A
17	41276118	T	G
17	41276118	T	C
17	41276118	T	A
17	41276117	T	G
17	41276117	T	C
17	41276117	T	A
17	41276116	C	T
17	41276116	C	G
17	41276116	C	A
17	41276115	T	G
17	41276115	T	C
17	41276115	T	A
17	41276114	T	G
17	41276114	T	C
17	41276114	T	A
17	41276113	T	G
17	41276113	T	C
17	41276113	T	A
17	41276112	A	T
17	41276112	A	G
17	41276112	A	C
17	41276111	C	T
17	41276111	C	G
17	41276111	C	A
17	41276110	C	T
17	41276110	C	G
17	41276110	C	A
17	41276109	T	G
17	41276109	T	C
17	41276109	T	A
17	41276108	A	T
17	41276108	A	G
17	41276108	A	C
17	41276107	A	T
17	41276107	A	G
17	41276107	A	C
17	41276106	A	T
17	41276106	A	G
17	41276106	A	C
17	41276105	T	G
17	41276105	T	C
17	41276105	T	A
17	41276104	A	T
17	41276104	A	G
17	41276104	A	C
17	41276103	G	T
17	41276103	G	C
17	41276103	G	A
17	41276102	A	T
17	41276102	A	G
17	41276102	A	C
17	41276101	C	T
17	41276101	C	G
17	41276101	C	A
17	41276100	G	T
17	41276100	G	C
17	41276100	G	A
17	41276099	A	T
17	41276099	A	G
17	41276099	A	C
17	41276098	G	T
17	41276098	G	C
17	41276098	G	A
17	41276097	A	T
17	41276097	A	G
17	41276097	A	C
17	41276096	A	T
17	41276096	A	G
17	41276096	A	C
17	41276095	G	T
17	41276095	G	C
17	41276095	G	A
17	41276094	C	T
17	41276094	C	G
17	41276094	C	A
17	41276093	G	T
17	41276093	G	C
17	41276093	G	A
17	41276092	C	T
17	41276092	C	G
17	41276092	C	A
17	41276091	A	T
17	41276091	A	G
17	41276091	A	C
17	41276090	A	T
17	41276090	A	G
17	41276090	A	C
17	41276089	C	T
17	41276089	C	G
17	41276089	C	A
17	41276088	T	G
17	41276088	T	C
17	41276088	T	A
17	41276087	T	G
17	41276087	T	C
17	41276087	T	A
17	41276086	C	T
17	41276086	C	G
17	41276086	C	A
17	41276085	T	G
17	41276085	T	C
17	41276085	T	A
17	41276084	T	G
17	41276084	T	C
17	41276084	T	A
17	41276083	C	T
17	41276083	C	G
17	41276083	C	A
17	41276082	A	T
17	41276082	A	G
17	41276082	A	C
17	41276081	T	G
17	41276081	T	C
17	41276081	T	A
17	41276080	G	T
17	41276080	G	C
17	41276080	G	A
17	41276079	T	G
17	41276079	T	C
17	41276079	T	A
17	41276078	T	G
17	41276078	T	C
17	41276078	T	A
17	41276077	T	G
17	41276077	T	C
17	41276077	T	A
17	41276076	T	G
17	41276076	T	C
17	41276076	T	A
17	41276075	A	T
17	41276075	A	G
17	41276075	A	C
17	41276074	C	T
17	41276074	C	G
17	41276074	C	A
17	41276073	A	T
17	41276073	A	G
17	41276073	A	C
17	41276072	G	T
17	41276072	G	C
17	41276072	G	A
17	41276071	T	G
17	41276071	T	C
17	41276071	T	A
17	41276070	A	T
17	41276070	A	G
17	41276070	A	C
17	41276069	A	T
17	41276069	A	G
17	41276069	A	C
17	41276068	T	G
17	41276068	T	C
17	41276068	T	A
17	41276067	T	G
17	41276067	T	C
17	41276067	T	A
17	41276066	A	T
17	41276066	A	G
17	41276066	A	C
17	41276065	C	T
17	41276065	C	G
17	41276065	C	A
17	41276064	G	T
17	41276064	G	C
17	41276064	G	A
17	41276063	A	T
17	41276063	A	G
17	41276063	A	C
17	41276062	T	G
17	41276062	T	C
17	41276062	T	A
17	41276061	A	T
17	41276061	A	G
17	41276061	A	C
17	41276060	C	T
17	41276060	C	G
17	41276060	C	A
17	41276059	G	T
17	41276059	G	C
17	41276059	G	A
17	41276058	T	G
17	41276058	T	C
17	41276058	T	A
17	41276057	C	T
17	41276057	C	G
17	41276057	C	A
17	41276056	T	G
17	41276056	T	C
17	41276056	T	A
17	41276055	T	G
17	41276055	T	C
17	41276055	T	A
17	41276054	T	G
17	41276054	T	C
17	41276054	T	A
17	41276053	T	G
17	41276053	T	C
17	41276053	T	A
17	41276052	A	T
17	41276052	A	G
17	41276052	A	C
17	41276051	G	T
17	41276051	G	C
17	41276051	G	A
17	41276050	A	T
17	41276050	A	G
17	41276050	A	C
17	41276049	A	T
17	41276049	A	G
17	41276049	A	C
17	41276048	T	G
17	41276048	T	C
17	41276048	T	A
17	41276047	C	T
17	41276047	C	G
17	41276047	C	A
17	41276046	T	G
17	41276046	T	C
17	41276046	T	A
17	41276045	C	T
17	41276045	C	G
17	41276045	C	A
17	41276044	A	T
17	41276044	A	G
17	41276044	A	C
17	41276043	C	T
17	41276043	C	G
17	41276043	C	A
17	41276042	A	T
17	41276042	A	G
17	41276042	A	C
17	41276041	G	T
17	41276041	G	C
17	41276041	G	A
17	41276040	G	C
17	41276040	G	A
17	41276038	T	G
17	41276038	T	C
17	41276037	A	T
17	41276037	A	G
17	41276037	A	C
17	41276036	G	T
17	41276036	G	C
17	41276036	G	A
17	41276035	A	T
17	41276035	A	G
17	41276035	A	C
17	41276034	C	T
17	41276034	C	G
17	41276034	C	A
17	41276033	C	T
17	41276033	C	G
17	41276033	C	A
17	41276032	A	T
17	41276032	A	G
17	41276032	A	C
17	41276031	T	G
17	41276031	T	C
17	41276031	T	A
17	41276030	T	G
17	41276030	T	C
17	41276030	T	A
17	41267819	A	T
17	41267819	A	G
17	41267819	A	C
17	41267818	A	T
17	41267818	A	G
17	41267818	A	C
17	41267817	A	T
17	41267817	A	G
17	41267817	A	C
17	41267816	G	T
17	41267816	G	C
17	41267816	G	A
17	41267815	A	T
17	41267815	A	G
17	41267815	A	C
17	41267814	G	T
17	41267814	G	C
17	41267814	G	A
17	41267813	G	T
17	41267813	G	C
17	41267813	G	A
17	41267812	G	T
17	41267812	G	C
17	41267812	G	A
17	41267811	G	T
17	41267811	G	C
17	41267811	G	A
17	41267810	G	T
17	41267810	G	C
17	41267810	G	A
17	41267809	G	T
17	41267809	G	C
17	41267809	G	A
17	41267808	G	T
17	41267808	G	C
17	41267808	G	A
17	41267807	A	T
17	41267807	A	G
17	41267807	A	C
17	41267806	T	G
17	41267806	T	C
17	41267806	T	A
17	41267805	G	T
17	41267805	G	C
17	41267805	G	A
17	41267804	G	T
17	41267804	G	C
17	41267804	G	A
17	41267803	G	T
17	41267803	G	C
17	41267803	G	A
17	41267802	A	T
17	41267802	A	G
17	41267802	A	C
17	41267801	C	T
17	41267801	C	G
17	41267801	C	A
17	41267800	G	T
17	41267800	G	C
17	41267800	G	A
17	41267799	A	T
17	41267799	A	G
17	41267799	A	C
17	41267798	T	G
17	41267798	T	C
17	41267798	T	A
17	41267797	C	T
17	41267797	C	G
17	41267797	C	A
17	41267796	A	T
17	41267796	A	G
17	41267796	A	C
17	41267795	G	T
17	41267795	G	C
17	41267795	G	A
17	41267794	A	T
17	41267794	A	G
17	41267794	A	C
17	41267793	C	T
17	41267793	C	G
17	41267793	C	A
17	41267792	C	T
17	41267792	C	G
17	41267792	C	A
17	41267791	T	G
17	41267791	T	C
17	41267791	T	A
17	41267790	C	T
17	41267790	C	G
17	41267790	C	A
17	41267789	A	T
17	41267789	A	G
17	41267789	A	C
17	41267788	A	T
17	41267788	A	G
17	41267788	A	C
17	41267787	C	T
17	41267787	C	G
17	41267787	C	A
17	41267786	T	G
17	41267786	T	C
17	41267786	T	A
17	41267785	A	T
17	41267785	A	G
17	41267785	A	C
17	41267784	G	T
17	41267784	G	C
17	41267784	G	A
17	41267783	T	G
17	41267783	T	C
17	41267783	T	A
17	41267782	T	G
17	41267782	T	C
17	41267782	T	A
17	41267781	C	T
17	41267781	C	G
17	41267781	C	A
17	41267780	C	T
17	41267780	C	G
17	41267780	C	A
17	41267779	T	G
17	41267779	T	C
17	41267779	T	A
17	41267778	T	G
17	41267778	T	C
17	41267778	T	A
17	41267777	G	T
17	41267777	G	C
17	41267777	G	A
17	41267776	G	T
17	41267776	G	C
17	41267776	G	A
17	41267775	A	T
17	41267775	A	G
17	41267775	A	C
17	41267774	C	T
17	41267774	C	G
17	41267774	C	A
17	41267773	A	T
17	41267773	A	G
17	41267773	A	C
17	41267772	G	T
17	41267772	G	C
17	41267772	G	A
17	41267771	A	T
17	41267771	A	C
17	41267768	T	G
17	41267768	T	C
17	41267768	T	A
17	41267767	G	T
17	41267767	G	C
17	41267767	G	A
17	41267766	T	G
17	41267766	T	C
17	41267766	T	A
17	41267765	T	G
17	41267765	T	C
17	41267765	T	A
17	41267764	T	G
17	41267764	T	C
17	41267764	T	A
17	41267763	C	T
17	41267763	C	G
17	41267763	C	A
17	41267762	A	T
17	41267762	A	G
17	41267762	A	C
17	41267761	C	T
17	41267761	C	G
17	41267761	C	A
17	41267760	A	T
17	41267760	A	G
17	41267760	A	C
17	41267759	C	T
17	41267759	C	G
17	41267759	C	A
17	41267758	T	G
17	41267758	T	C
17	41267758	T	A
17	41267757	G	T
17	41267757	G	C
17	41267757	G	A
17	41267756	G	T
17	41267756	G	C
17	41267756	G	A
17	41267755	T	G
17	41267755	T	C
17	41267755	T	A
17	41267754	G	T
17	41267754	G	C
17	41267754	G	A
17	41267753	T	G
17	41267753	T	C
17	41267753	T	A
17	41267752	A	T
17	41267752	A	G
17	41267752	A	C
17	41267751	T	G
17	41267751	T	C
17	41267751	T	A
17	41267750	A	T
17	41267750	A	G
17	41267750	A	C
17	41267749	A	T
17	41267749	A	G
17	41267749	A	C
17	41267748	A	T
17	41267748	A	G
17	41267748	A	C
17	41267747	A	T
17	41267747	A	G
17	41267747	A	C
17	41267746	C	T
17	41267746	C	G
17	41267746	C	A
17	41267745	G	T
17	41267745	G	C
17	41267745	G	A
17	41267744	T	G
17	41267744	T	C
17	41267744	T	A
17	41267743	T	G
17	41267743	T	C
17	41267743	T	A
17	41267742	C	T
17	41267742	C	G
17	41267742	C	A
17	41267741	A	T
17	41267741	A	G
17	41267741	A	C
17	41267740	T	G
17	41267740	T	C
17	41267740	T	A
17	41267739	T	G
17	41267739	T	C
17	41267739	T	A
17	41267738	C	T
17	41267738	C	G
17	41267738	C	A
17	41267737	A	T
17	41267737	A	G
17	41267737	A	C
17	41267736	A	T
17	41267736	A	G
17	41267736	A	C
17	41267735	A	T
17	41267735	A	G
17	41267735	A	C
17	41267734	C	T
17	41267734	C	G
17	41267734	C	A
17	41267733	T	G
17	41267733	T	C
17	41267733	T	A
17	41267732	T	G
17	41267732	T	C
17	41267732	T	A
17	41267731	A	T
17	41267731	A	G
17	41267731	A	C
17	41267730	C	T
17	41267730	C	G
17	41267730	C	A
17	41267729	A	T
17	41267729	A	G
17	41267729	A	C
17	41267728	C	T
17	41267728	C	G
17	41267728	C	A
17	41267727	A	T
17	41267727	A	G
17	41267727	A	C
17	41267726	A	T
17	41267726	A	G
17	41267726	A	C
17	41267725	T	G
17	41267725	T	C
17	41267725	T	A
17	41267724	A	T
17	41267724	A	G
17	41267724	A	C
17	41267723	C	T
17	41267723	C	G
17	41267723	C	A
17	41267722	A	T
17	41267722	A	G
17	41267722	A	C
17	41267721	C	T
17	41267721	C	G
17	41267721	C	A
17	41267720	C	T
17	41267720	C	A
17	41258562	A	T
17	41258562	A	G
17	41258562	A	C
17	41258561	T	G
17	41258561	T	C
17	41258561	T	A
17	41258560	A	T
17	41258560	A	G
17	41258560	A	C
17	41258559	T	G
17	41258559	T	C
17	41258559	T	A
17	41258558	T	G
17	41258558	T	C
17	41258558	T	A
17	41258557	A	T
17	41258557	A	G
17	41258557	A	C
17	41258556	A	T
17	41258556	A	G
17	41258556	A	C
17	41258555	A	T
17	41258555	A	G
17	41258555	A	C
17	41258554	T	G
17	41258554	T	C
17	41258554	T	A
17	41258553	A	T
17	41258553	A	G
17	41258553	A	C
17	41258552	T	G
17	41258552	T	C
17	41258552	T	A
17	41258551	C	T
17	41258551	C	G
17	41258551	C	A
17	41258550	T	G
17	41258550	T	C
17	41258550	T	A
17	41258549	A	T
17	41258549	A	G
17	41258549	A	C
17	41258548	A	T
17	41258548	A	G
17	41258548	A	C
17	41258547	A	T
17	41258547	A	G
17	41258547	A	C
17	41258546	A	T
17	41258546	A	G
17	41258546	A	C
17	41258545	C	T
17	41258545	C	G
17	41258545	C	A
17	41258544	G	T
17	41258544	G	C
17	41258544	G	A
17	41258543	T	G
17	41258543	T	C
17	41258543	T	A
17	41258542	A	T
17	41258542	A	G
17	41258542	A	C
17	41258541	C	T
17	41258541	C	G
17	41258541	C	A
17	41258540	G	T
17	41258540	G	C
17	41258540	G	A
17	41258539	A	T
17	41258539	A	G
17	41258539	A	C
17	41258538	C	T
17	41258538	C	G
17	41258538	C	A
17	41258537	T	G
17	41258537	T	C
17	41258537	T	A
17	41258536	T	G
17	41258536	T	C
17	41258536	T	A
17	41258535	T	G
17	41258535	T	C
17	41258535	T	A
17	41258534	G	T
17	41258534	G	C
17	41258534	G	A
17	41258533	A	T
17	41258533	A	G
17	41258533	A	C
17	41258532	A	T
17	41258532	A	G
17	41258532	A	C
17	41258531	G	T
17	41258531	G	C
17	41258531	G	A
17	41258530	A	T
17	41258530	A	G
17	41258530	A	C
17	41258529	G	T
17	41258529	G	C
17	41258529	G	A
17	41258528	T	G
17	41258528	T	C
17	41258528	T	A
17	41258527	T	G
17	41258527	T	C
17	41258527	T	A
17	41258526	G	T
17	41258526	G	C
17	41258526	G	A
17	41258525	G	T
17	41258525	G	C
17	41258525	G	A
17	41258524	T	G
17	41258524	T	C
17	41258524	T	A
17	41258523	C	T
17	41258523	C	G
17	41258523	C	A
17	41258522	T	G
17	41258522	T	C
17	41258522	T	A
17	41258521	T	G
17	41258521	T	C
17	41258521	T	A
17	41258520	C	T
17	41258520	C	G
17	41258520	C	A
17	41258519	T	G
17	41258519	T	C
17	41258519	T	A
17	41258518	T	G
17	41258518	T	C
17	41258518	T	A
17	41258517	T	G
17	41258517	T	C
17	41258517	T	A
17	41258516	C	G
17	41258515	C	G
17	41258515	C	A
17	41258513	G	T
17	41258513	G	C
17	41258512	G	T
17	41258512	G	C
17	41258512	G	A
17	41258511	A	T
17	41258511	A	G
17	41258511	A	C
17	41258510	A	T
17	41258510	A	G
17	41258510	A	C
17	41258509	G	T
17	41258509	G	C
17	41258509	G	A
17	41258508	T	G
17	41258508	T	C
17	41258508	T	A
17	41258507	G	T
17	41258507	G	C
17	41258507	G	A
17	41258506	T	G
17	41258506	T	C
17	41258506	T	A
17	41258505	C	T
17	41258505	C	G
17	41258505	C	A
17	41258504	A	T
17	41258504	A	G
17	41258504	A	C
17	41258503	C	T
17	41258503	C	G
17	41258503	C	A
17	41258502	A	T
17	41258502	A	G
17	41258502	A	C
17	41258501	G	T
17	41258501	G	C
17	41258501	G	A
17	41258500	G	T
17	41258500	G	C
17	41258500	G	A
17	41258499	A	T
17	41258499	A	G
17	41258499	A	C
17	41258498	A	T
17	41258498	A	G
17	41258498	A	C
17	41258497	A	T
17	41258497	A	G
17	41258497	A	C
17	41258496	T	G
17	41258496	T	C
17	41258496	T	A
17	41258495	A	T
17	41258495	A	G
17	41258495	A	C
17	41258494	C	T
17	41258494	C	G
17	41258494	C	A
17	41258493	A	T
17	41258493	A	G
17	41258493	A	C
17	41258492	T	G
17	41258492	T	C
17	41258492	T	A
17	41258491	T	G
17	41258491	T	C
17	41258491	T	A
17	41258490	C	T
17	41258490	C	G
17	41258490	C	A
17	41258489	T	G
17	41258489	T	C
17	41258489	T	A
17	41258488	T	G
17	41258488	T	C
17	41258488	T	A
17	41258487	A	T
17	41258487	A	G
17	41258487	A	C
17	41258486	C	T
17	41258486	C	G
17	41258486	C	A
17	41258485	T	G
17	41258485	T	C
17	41258485	T	A
17	41258484	A	T
17	41258484	A	G
17	41258484	A	C
17	41258483	T	G
17	41258483	T	C
17	41258483	T	A
17	41258482	A	T
17	41258482	A	G
17	41258482	A	C
17	41258481	T	G
17	41258481	T	C
17	41258481	T	A
17	41258480	T	G
17	41258480	T	C
17	41258480	T	A
17	41258479	G	T
17	41258479	G	C
17	41258479	G	A
17	41258478	G	T
17	41258478	G	C
17	41258478	G	A
17	41258477	T	G
17	41258477	T	C
17	41258477	T	A
17	41258476	T	G
17	41258476	T	C
17	41258476	T	A
17	41258475	T	G
17	41258475	T	C
17	41258475	T	A
17	41258474	T	G
17	41258474	T	C
17	41258474	T	A
17	41258473	C	T
17	41258473	C	G
17	41258473	C	A
17	41258472	C	T
17	41258472	C	G
17	41258472	C	A
17	41258471	A	T
17	41258471	A	G
17	41258471	A	C
17	41258470	T	G
17	41258470	T	C
17	41258470	T	A
17	41258469	A	T
17	41258469	A	G
17	41258469	A	C
17	41258468	T	G
17	41258468	T	C
17	41258468	T	A
17	41258467	A	T
17	41258467	A	G
17	41258467	A	C
17	41258466	T	G
17	41258466	T	C
17	41258466	T	A
17	41258465	T	G
17	41258465	T	C
17	41258465	T	A
17	41258464	A	T
17	41258464	A	G
17	41258464	A	C
17	41258463	A	T
17	41258463	A	G
17	41258463	A	C
17	41256983	A	T
17	41256983	A	G
17	41256983	A	C
17	41256982	A	T
17	41256982	A	G
17	41256982	A	C
17	41256981	T	G
17	41256981	T	C
17	41256981	T	A
17	41256980	T	G
17	41256980	T	C
17	41256980	T	A
17	41256979	A	T
17	41256979	A	G
17	41256979	A	C
17	41256978	A	T
17	41256978	A	G
17	41256978	A	C
17	41256977	A	T
17	41256977	A	G
17	41256977	A	C
17	41256976	G	T
17	41256976	G	C
17	41256976	G	A
17	41256975	T	G
17	41256975	T	C
17	41256975	T	A
17	41256974	C	T
17	41256974	C	G
17	41256974	C	A
17	41256973	C	T
17	41256973	C	G
17	41256973	C	A
17	41256972	T	G
17	41256972	T	C
17	41256972	T	A
17	41256971	C	T
17	41256971	C	G
17	41256971	C	A
17	41256970	G	T
17	41256970	G	C
17	41256970	G	A
17	41256969	G	C
17	41256969	G	A
17	41256968	A	T
17	41256968	A	G
17	41256968	A	C
17	41256967	T	G
17	41256967	T	C
17	41256967	T	A
17	41256966	G	T
17	41256966	G	C
17	41256966	G	A
17	41256965	T	G
17	41256965	T	C
17	41256965	T	A
17	41256964	T	G
17	41256964	T	A
17	41256963	C	T
17	41256963	C	G
17	41256963	C	A
17	41256962	T	G
17	41256962	T	C
17	41256961	T	G
17	41256961	T	C
17	41256961	T	A
17	41256960	T	G
17	41256960	T	C
17	41256960	T	A
17	41256959	C	T
17	41256959	C	G
17	41256959	C	A
17	41256958	A	T
17	41256958	A	G
17	41256957	T	G
17	41256957	T	C
17	41256957	T	A
17	41256956	G	T
17	41256956	G	C
17	41256956	G	A
17	41256955	C	G
17	41256955	C	A
17	41256954	T	G
17	41256954	T	C
17	41256954	T	A
17	41256953	C	T
17	41256953	C	G
17	41256953	C	A
17	41256952	T	G
17	41256952	T	C
17	41256952	T	A
17	41256951	A	G
17	41256951	A	C
17	41256950	A	T
17	41256950	A	G
17	41256950	A	C
17	41256949	A	T
17	41256949	A	G
17	41256949	A	C
17	41256948	T	G
17	41256948	T	C
17	41256948	T	A
17	41256947	C	T
17	41256947	C	G
17	41256947	C	A
17	41256946	A	T
17	41256946	A	G
17	41256946	A	C
17	41256945	G	T
17	41256945	G	C
17	41256945	G	A
17	41256944	T	G
17	41256944	T	C
17	41256944	T	A
17	41256943	T	G
17	41256943	T	C
17	41256943	T	A
17	41256942	G	T
17	41256942	G	C
17	41256942	G	A
17	41256941	A	T
17	41256941	A	G
17	41256941	A	C
17	41256940	A	T
17	41256940	A	G
17	41256940	A	C
17	41256939	C	T
17	41256939	C	G
17	41256939	C	A
17	41256938	A	T
17	41256938	A	C
17	41256937	A	T
17	41256937	A	G
17	41256937	A	C
17	41256936	C	T
17	41256936	C	G
17	41256936	C	A
17	41256935	T	G
17	41256935	T	C
17	41256935	T	A
17	41256934	T	G
17	41256934	T	C
17	41256934	T	A
17	41256933	C	T
17	41256933	C	G
17	41256933	C	A
17	41256932	T	G
17	41256932	T	C
17	41256932	T	A
17	41256931	C	T
17	41256931	C	G
17	41256931	C	A
17	41256930	G	T
17	41256930	G	C
17	41256930	G	A
17	41256929	A	T
17	41256929	A	G
17	41256929	A	C
17	41256928	T	G
17	41256928	T	C
17	41256928	T	A
17	41256927	A	T
17	41256927	A	G
17	41256927	A	C
17	41256926	A	T
17	41256926	A	G
17	41256926	A	C
17	41256925	C	T
17	41256925	C	G
17	41256925	C	A
17	41256924	T	G
17	41256924	T	C
17	41256924	T	A
17	41256923	T	G
17	41256923	T	C
17	41256922	T	G
17	41256922	T	C
17	41256922	T	A
17	41256921	T	G
17	41256921	T	C
17	41256921	T	A
17	41256920	A	T
17	41256920	A	G
17	41256920	A	C
17	41256919	G	T
17	41256919	G	C
17	41256919	G	A
17	41256918	T	G
17	41256918	T	C
17	41256918	T	A
17	41256917	A	T
17	41256917	A	G
17	41256917	A	C
17	41256916	A	T
17	41256916	A	G
17	41256916	A	C
17	41256915	A	T
17	41256915	A	G
17	41256915	A	C
17	41256914	C	T
17	41256914	C	G
17	41256914	C	A
17	41256913	A	T
17	41256913	A	G
17	41256913	A	C
17	41256912	C	T
17	41256912	C	G
17	41256912	C	A
17	41256911	G	T
17	41256911	G	C
17	41256911	G	A
17	41256910	A	T
17	41256910	A	G
17	41256910	A	C
17	41256909	A	T
17	41256909	A	G
17	41256909	A	C
17	41256908	A	T
17	41256908	A	G
17	41256908	A	C
17	41256907	A	T
17	41256907	A	G
17	41256907	A	C
17	41256906	G	T
17	41256906	G	C
17	41256906	G	A
17	41256905	T	G
17	41256905	T	C
17	41256905	T	A
17	41256904	C	T
17	41256904	C	G
17	41256904	C	A
17	41256903	G	T
17	41256903	G	C
17	41256903	G	A
17	41256902	A	T
17	41256902	A	G
17	41256902	A	C
17	41256901	A	T
17	41256901	A	G
17	41256901	A	C
17	41256900	C	T
17	41256900	C	G
17	41256900	C	A
17	41256899	T	G
17	41256899	T	C
17	41256899	T	A
17	41256898	G	T
17	41256898	G	C
17	41256898	G	A
17	41256897	T	G
17	41256897	T	C
17	41256897	T	A
17	41256896	G	T
17	41256896	G	C
17	41256896	G	A
17	41256895	T	G
17	41256895	T	C
17	41256895	T	A
17	41256894	C	T
17	41256894	C	G
17	41256894	C	A
17	41256893	C	T
17	41256893	C	G
17	41256893	C	A
17	41256892	A	T
17	41256892	A	G
17	41256892	A	C
17	41256891	A	G
17	41256891	A	C
17	41256888	C	A
17	41256886	C	T
17	41256886	C	G
17	41256886	C	A
17	41256885	A	T
17	41256885	A	C
17	41256884	C	T
17	41256884	C	G
17	41256884	C	A
17	41256883	A	T
17	41256883	A	G
17	41256883	A	C
17	41256882	T	C
17	41256882	T	A
17	41256881	T	G
17	41256881	T	C
17	41256881	T	A
17	41256880	C	T
17	41256880	C	G
17	41256879	A	T
17	41256879	A	G
17	41256879	A	C
17	41256878	C	T
17	41256878	C	G
17	41256878	C	A
17	41256877	A	T
17	41256877	A	G
17	41256877	A	C
17	41256876	A	G
17	41256876	A	C
17	41256875	C	T
17	41256875	C	G
17	41256875	C	A
17	41223040	T	G
17	41223040	T	C
17	41223040	T	A
17	41223039	C	T
17	41223039	C	G
17	41223039	C	A
17	41223038	A	T
17	41223038	A	G
17	41223038	A	C
17	41223037	C	T
17	41223037	C	G
17	41223037	C	A
17	41223036	A	T
17	41223036	A	G
17	41223036	A	C
17	41223035	C	T
17	41223035	C	G
17	41223035	C	A
17	41223034	T	G
17	41223034	T	C
17	41223034	T	A
17	41223033	C	T
17	41223033	C	G
17	41223033	C	A
17	41223032	G	T
17	41223032	G	C
17	41223032	G	A
17	41223031	T	G
17	41223031	T	C
17	41223030	C	T
17	41223030	C	G
17	41223029	C	G
17	41223029	C	A
17	41223028	C	T
17	41223028	C	G
17	41223028	C	A
17	41223027	T	G
17	41223027	T	C
17	41223027	T	A
17	41223026	C	T
17	41223026	C	G
17	41223026	C	A
17	41223025	T	G
17	41223025	T	C
17	41223025	T	A
17	41223024	T	G
17	41223024	T	C
17	41223024	T	A
17	41223023	C	T
17	41223023	C	G
17	41223023	C	A
17	41223022	G	T
17	41223022	G	C
17	41223022	G	A
17	41223021	G	T
17	41223021	G	C
17	41223021	G	A
17	41223020	T	G
17	41223020	T	C
17	41223020	T	A
17	41223019	C	T
17	41223019	C	G
17	41223019	C	A
17	41223018	T	G
17	41223018	T	C
17	41223018	T	A
17	41223017	T	G
17	41223017	T	C
17	41223017	T	A
17	41223016	A	T
17	41223016	A	G
17	41223016	A	C
17	41223015	A	T
17	41223015	A	G
17	41223015	A	C
17	41223014	C	T
17	41223014	C	G
17	41223014	C	A
17	41223013	T	G
17	41223013	T	C
17	41223013	T	A
17	41223012	G	T
17	41223012	G	C
17	41223012	G	A
17	41223011	T	G
17	41223011	T	C
17	41223011	T	A
17	41223010	C	T
17	41223010	C	G
17	41223010	C	A
17	41223009	G	T
17	41223009	G	C
17	41223009	G	A
17	41223008	A	T
17	41223008	A	G
17	41223008	A	C
17	41223007	A	T
17	41223007	A	G
17	41223007	A	C
17	41223006	G	T
17	41223006	G	C
17	41223006	G	A
17	41223005	T	G
17	41223005	T	C
17	41223005	T	A
17	41223004	T	G
17	41223004	T	C
17	41223004	T	A
17	41223003	G	T
17	41223003	G	C
17	41223003	G	A
17	41223002	T	G
17	41223002	T	C
17	41223002	T	A
17	41223001	C	T
17	41223001	C	G
17	41223001	C	A
17	41223000	T	G
17	41223000	T	C
17	41223000	T	A
17	41222999	T	G
17	41222999	T	C
17	41222999	T	A
17	41222998	T	G
17	41222998	T	C
17	41222998	T	A
17	41222997	C	T
17	41222997	C	G
17	41222997	C	A
17	41222996	C	T
17	41222996	C	G
17	41222996	C	A
17	41222995	C	T
17	41222995	C	G
17	41222995	C	A
17	41222994	A	T
17	41222994	A	G
17	41222994	A	C
17	41222993	G	T
17	41222993	G	C
17	41222993	G	A
17	41222992	T	G
17	41222992	T	C
17	41222992	T	A
17	41222991	T	G
17	41222991	T	C
17	41222991	T	A
17	41222990	G	T
17	41222990	G	C
17	41222990	G	A
17	41222989	T	G
17	41222989	T	C
17	41222989	T	A
17	41222988	T	G
17	41222988	T	C
17	41222988	T	A
17	41222987	T	G
17	41222987	T	C
17	41222987	T	A
17	41222986	T	G
17	41222986	T	C
17	41222986	T	A
17	41222985	C	T
17	41222985	C	G
17	41222985	C	A
17	41222984	T	G
17	41222984	T	C
17	41222984	T	A
17	41222983	T	G
17	41222983	T	C
17	41222983	T	A
17	41222982	A	T
17	41222982	A	G
17	41222982	A	C
17	41222981	C	T
17	41222981	C	G
17	41222981	C	A
17	41222980	A	T
17	41222980	A	G
17	41222980	A	C
17	41222979	G	T
17	41222979	G	C
17	41222979	G	A
17	41222978	G	T
17	41222978	G	C
17	41222978	G	A
17	41222977	T	G
17	41222977	T	C
17	41222977	T	A
17	41222976	A	T
17	41222976	A	G
17	41222976	A	C
17	41222975	C	T
17	41222975	C	G
17	41222975	C	A
17	41222974	C	G
17	41222974	C	A
17	41222973	A	T
17	41222973	A	G
17	41222973	A	C
17	41222972	C	T
17	41222972	C	G
17	41222972	C	A
17	41222971	C	T
17	41222971	C	G
17	41222971	C	A
17	41222970	A	T
17	41222970	A	G
17	41222970	A	C
17	41222969	C	T
17	41222969	C	G
17	41222969	C	A
17	41222968	A	T
17	41222968	A	G
17	41222968	A	C
17	41222967	G	T
17	41222967	G	C
17	41222967	G	A
17	41222966	A	T
17	41222966	A	G
17	41222966	A	C
17	41222965	C	T
17	41222965	C	G
17	41222965	C	A
17	41222964	C	T
17	41222964	C	G
17	41222964	C	A
17	41222963	G	T
17	41222963	G	C
17	41222963	G	A
17	41222962	G	T
17	41222962	G	C
17	41222962	G	A
17	41222961	A	T
17	41222961	A	G
17	41222961	A	C
17	41222960	C	T
17	41222960	C	G
17	41222960	C	A
17	41222959	T	C
17	41222959	T	A
17	41222956	G	T
17	41222956	G	C
17	41222956	G	A
17	41222955	G	T
17	41222955	G	C
17	41222955	G	A
17	41222954	T	G
17	41222954	T	C
17	41222954	T	A
17	41222953	C	T
17	41222953	C	G
17	41222953	C	A
17	41222952	T	G
17	41222952	T	C
17	41222952	T	A
17	41222951	T	G
17	41222951	T	C
17	41222951	T	A
17	41222950	C	T
17	41222950	C	G
17	41222950	C	A
17	41222949	T	G
17	41222949	T	C
17	41222949	T	A
17	41222948	T	G
17	41222948	T	C
17	41222948	T	A
17	41222947	A	T
17	41222947	A	G
17	41222947	A	C
17	41222946	A	T
17	41222946	A	G
17	41222946	A	C
17	41222945	A	T
17	41222945	A	G
17	41222945	A	C
17	41222944	C	T
17	41222944	C	G
17	41222944	C	A
17	41222943	A	T
17	41222943	A	G
17	41222943	A	C
17	41222942	C	T
17	41222942	C	G
17	41222942	C	A
17	41222941	T	G
17	41222941	T	C
17	41222941	T	A
17	41222940	C	T
17	41222940	C	G
17	41222940	C	A
17	41222939	A	G
17	41222939	A	C
17	41222938	C	T
17	41222938	C	G
17	41222938	C	A
17	41222937	A	T
17	41222937	A	G
17	41222937	A	C
17	41222936	T	G
17	41222936	T	C
17	41222936	T	A
17	41222935	A	T
17	41222935	A	G
17	41222935	A	C
17	41219722	A	T
17	41219722	A	G
17	41219722	A	C
17	41219721	A	T
17	41219721	A	G
17	41219721	A	C
17	41219720	T	G
17	41219720	T	C
17	41219720	T	A
17	41219719	T	G
17	41219719	T	C
17	41219719	T	A
17	41219718	A	T
17	41219718	A	G
17	41219718	A	C
17	41219717	A	T
17	41219717	A	G
17	41219717	A	C
17	41219716	A	T
17	41219716	A	G
17	41219716	A	C
17	41219715	G	T
17	41219715	G	C
17	41219715	G	A
17	41219714	T	G
17	41219714	T	C
17	41219714	T	A
17	41219713	C	T
17	41219713	C	G
17	41219713	C	A
17	41219712	T	G
17	41219712	T	C
17	41219712	T	A
17	41219711	A	T
17	41219711	A	G
17	41219711	A	C
17	41219710	C	T
17	41219710	C	G
17	41219710	C	A
17	41219709	G	T
17	41219709	G	C
17	41219709	G	A
17	41219708	A	T
17	41219708	A	G
17	41219708	A	C
17	41219707	G	C
17	41219707	G	A
17	41219706	C	T
17	41219706	C	G
17	41219706	C	A
17	41219705	A	T
17	41219705	A	G
17	41219705	A	C
17	41219704	C	T
17	41219704	C	G
17	41219704	C	A
17	41219703	A	T
17	41219703	A	G
17	41219703	A	C
17	41219702	T	G
17	41219702	T	C
17	41219702	T	A
17	41219701	G	T
17	41219701	G	C
17	41219701	G	A
17	41219700	T	G
17	41219700	T	C
17	41219700	T	A
17	41219699	T	G
17	41219699	T	C
17	41219699	T	A
17	41219698	C	T
17	41219698	C	G
17	41219698	C	A
17	41219697	A	T
17	41219697	A	G
17	41219697	A	C
17	41219696	A	T
17	41219696	A	G
17	41219696	A	C
17	41219695	A	T
17	41219695	A	G
17	41219695	A	C
17	41219694	C	T
17	41219694	C	G
17	41219694	C	A
17	41219693	G	T
17	41219693	G	C
17	41219692	G	T
17	41219692	G	C
17	41219692	G	A
17	41219691	T	G
17	41219691	T	C
17	41219691	T	A
17	41219690	C	T
17	41219690	C	G
17	41219690	C	A
17	41219689	T	G
17	41219689	T	C
17	41219689	T	A
17	41219688	T	G
17	41219688	T	C
17	41219688	T	A
17	41219687	T	G
17	41219687	T	C
17	41219687	T	A
17	41219686	T	G
17	41219686	T	C
17	41219686	T	A
17	41219685	G	T
17	41219685	G	C
17	41219685	G	A
17	41219684	T	G
17	41219684	T	C
17	41219684	T	A
17	41219683	G	T
17	41219683	G	C
17	41219683	G	A
17	41219682	G	T
17	41219682	G	C
17	41219682	G	A
17	41219681	T	G
17	41219681	T	C
17	41219681	T	A
17	41219680	G	T
17	41219680	G	C
17	41219680	G	A
17	41219679	T	G
17	41219679	T	C
17	41219678	A	G
17	41219676	T	G
17	41219676	T	C
17	41219676	T	A
17	41219675	G	T
17	41219675	G	A
17	41219673	A	T
17	41219673	A	G
17	41219673	A	C
17	41219672	A	T
17	41219672	A	C
17	41219671	T	G
17	41219671	T	C
17	41219671	T	A
17	41219670	T	G
17	41219670	T	C
17	41219670	T	A
17	41219669	G	T
17	41219669	G	C
17	41219669	G	A
17	41219668	A	T
17	41219668	A	G
17	41219668	A	C
17	41219667	T	G
17	41219667	T	C
17	41219667	T	A
17	41219666	T	G
17	41219666	T	C
17	41219666	T	A
17	41219665	A	T
17	41219665	A	G
17	41219665	A	C
17	41219664	G	T
17	41219664	G	C
17	41219664	G	A
17	41219663	A	T
17	41219663	A	G
17	41219663	A	C
17	41219662	T	G
17	41219662	T	C
17	41219662	T	A
17	41219661	T	G
17	41219661	T	C
17	41219661	T	A
17	41219660	A	T
17	41219660	A	G
17	41219660	A	C
17	41219659	A	T
17	41219659	A	G
17	41219659	A	C
17	41219658	T	G
17	41219658	T	C
17	41219658	T	A
17	41219657	G	T
17	41219657	G	C
17	41219657	G	A
17	41219656	A	T
17	41219656	A	G
17	41219656	A	C
17	41219655	C	T
17	41219655	C	G
17	41219655	C	A
17	41219654	T	G
17	41219654	T	C
17	41219654	T	A
17	41219653	T	G
17	41219653	T	C
17	41219653	T	A
17	41219652	C	T
17	41219652	C	G
17	41219652	C	A
17	41219651	T	G
17	41219651	T	C
17	41219651	T	A
17	41219650	C	T
17	41219650	C	G
17	41219650	C	A
17	41219649	T	G
17	41219649	T	C
17	41219649	T	A
17	41219648	G	T
17	41219648	G	C
17	41219648	G	A
17	41219647	A	T
17	41219647	A	G
17	41219647	A	C
17	41219646	T	G
17	41219646	T	C
17	41219646	T	A
17	41219645	G	T
17	41219645	G	C
17	41219645	G	A
17	41219644	A	T
17	41219644	A	G
17	41219644	A	C
17	41219643	G	T
17	41219643	G	C
17	41219643	G	A
17	41219642	T	G
17	41219642	T	C
17	41219642	T	A
17	41219641	A	T
17	41219641	A	G
17	41219641	A	C
17	41219640	C	T
17	41219640	C	G
17	41219640	C	A
17	41219639	A	T
17	41219639	A	G
17	41219639	A	C
17	41219638	A	T
17	41219638	A	G
17	41219638	A	C
17	41219637	C	T
17	41219637	C	G
17	41219637	C	A
17	41219636	A	T
17	41219636	A	G
17	41219636	A	C
17	41219635	A	T
17	41219635	A	G
17	41219635	A	C
17	41219634	T	G
17	41219634	T	C
17	41219634	T	A
17	41219633	A	T
17	41219633	A	G
17	41219633	A	C
17	41219632	C	T
17	41219632	C	G
17	41219632	C	A
17	41219631	T	G
17	41219631	T	C
17	41219631	T	A
17	41219630	T	G
17	41219630	T	C
17	41219630	T	A
17	41219629	T	G
17	41219629	T	C
17	41219629	T	A
17	41219628	T	G
17	41219628	T	C
17	41219628	T	A
17	41219627	G	T
17	41219627	G	C
17	41219627	G	A
17	41219626	T	G
17	41219626	T	C
17	41219626	T	A
17	41219625	C	T
17	41219625	C	G
17	41219625	C	A
17	41219624	C	T
17	41219624	C	G
17	41219624	C	A
17	41219623	A	T
17	41219623	A	G
17	41219623	A	C
17	41219622	T	G
17	41219622	T	C
17	41219622	T	A
17	41219621	A	T
17	41219621	A	G
17	41219621	A	C
17	41219620	T	G
17	41219620	T	C
17	41219620	T	A
17	41219619	G	T
17	41219619	G	C
17	41219619	G	A
17	41219618	G	T
17	41219618	G	C
17	41219618	G	A
17	41219617	T	G
17	41219617	T	C
17	41219617	T	A
17	41219616	T	G
17	41219616	T	C
17	41219616	T	A
17	41219615	C	T
17	41219615	C	G
17	41219615	C	A
17	41215978	G	T
17	41215978	G	C
17	41215978	G	A
17	41215977	T	G
17	41215977	T	C
17	41215977	T	A
17	41215976	A	T
17	41215976	A	G
17	41215976	A	C
17	41215975	A	T
17	41215975	A	G
17	41215975	A	C
17	41215974	G	T
17	41215974	G	C
17	41215974	G	A
17	41215973	A	T
17	41215973	A	G
17	41215973	A	C
17	41215972	C	T
17	41215972	C	G
17	41215972	C	A
17	41215971	G	T
17	41215971	G	C
17	41215971	G	A
17	41215970	T	G
17	41215970	T	C
17	41215970	T	A
17	41215969	C	T
17	41215969	C	G
17	41215969	C	A
17	41215968	T	G
17	41215968	T	C
17	41215968	T	A
17	41215967	A	T
17	41215967	A	G
17	41215967	A	C
17	41215966	C	T
17	41215966	C	G
17	41215966	C	A
17	41215965	G	T
17	41215965	G	C
17	41215965	G	A
17	41215964	A	T
17	41215964	A	G
17	41215964	A	C
17	41215963	C	T
17	41215963	C	G
17	41215963	C	A
17	41215962	T	G
17	41215962	T	C
17	41215962	T	A
17	41215961	C	T
17	41215961	C	G
17	41215961	C	A
17	41215960	A	T
17	41215960	A	G
17	41215960	A	C
17	41215959	A	T
17	41215959	A	G
17	41215959	A	C
17	41215958	A	T
17	41215958	A	G
17	41215958	A	C
17	41215957	C	T
17	41215957	C	G
17	41215957	C	A
17	41215956	A	T
17	41215956	A	G
17	41215956	A	C
17	41215955	C	T
17	41215955	C	G
17	41215955	C	A
17	41215954	A	T
17	41215954	A	G
17	41215954	A	C
17	41215953	C	T
17	41215953	C	G
17	41215953	C	A
17	41215952	A	T
17	41215952	A	G
17	41215952	A	C
17	41215951	C	T
17	41215951	C	G
17	41215951	C	A
17	41215950	T	G
17	41215950	T	C
17	41215950	T	A
17	41215949	T	G
17	41215949	T	C
17	41215949	T	A
17	41215948	G	C
17	41215947	C	G
17	41215947	C	A
17	41215945	T	G
17	41215945	T	C
17	41215944	G	T
17	41215944	G	C
17	41215944	G	A
17	41215943	T	G
17	41215943	T	C
17	41215943	T	A
17	41215942	G	T
17	41215942	G	C
17	41215942	G	A
17	41215941	A	T
17	41215941	A	G
17	41215941	A	C
17	41215940	C	T
17	41215940	C	G
17	41215940	C	A
17	41215939	T	G
17	41215939	T	C
17	41215939	T	A
17	41215938	T	G
17	41215938	T	C
17	41215938	T	A
17	41215937	T	G
17	41215937	T	C
17	41215937	T	A
17	41215936	A	T
17	41215936	A	G
17	41215936	A	C
17	41215935	T	G
17	41215935	T	C
17	41215935	T	A
17	41215934	A	T
17	41215934	A	G
17	41215934	A	C
17	41215933	A	T
17	41215933	A	G
17	41215933	A	C
17	41215932	A	T
17	41215932	A	G
17	41215932	A	C
17	41215931	A	T
17	41215931	A	G
17	41215931	A	C
17	41215930	G	T
17	41215930	G	C
17	41215930	G	A
17	41215929	A	T
17	41215929	A	G
17	41215929	A	C
17	41215928	T	G
17	41215928	T	C
17	41215928	T	A
17	41215927	C	T
17	41215927	C	G
17	41215927	C	A
17	41215926	C	T
17	41215926	C	G
17	41215926	C	A
17	41215925	T	G
17	41215925	T	C
17	41215925	T	A
17	41215924	T	G
17	41215924	T	C
17	41215924	T	A
17	41215923	A	T
17	41215923	A	G
17	41215923	A	C
17	41215922	A	T
17	41215922	A	G
17	41215922	A	C
17	41215921	C	T
17	41215921	C	G
17	41215921	C	A
17	41215920	G	T
17	41215920	G	C
17	41215920	G	A
17	41215919	C	T
17	41215919	C	G
17	41215919	C	A
17	41215918	C	T
17	41215918	C	G
17	41215918	C	A
17	41215917	C	T
17	41215917	C	G
17	41215917	C	A
17	41215916	T	G
17	41215916	T	C
17	41215916	T	A
17	41215915	C	T
17	41215915	C	G
17	41215915	C	A
17	41215914	C	T
17	41215914	C	G
17	41215914	C	A
17	41215913	T	G
17	41215913	T	C
17	41215913	T	A
17	41215912	T	G
17	41215912	T	C
17	41215912	T	A
17	41215911	T	G
17	41215911	T	C
17	41215911	T	A
17	41215910	T	G
17	41215910	T	C
17	41215910	T	A
17	41215909	A	T
17	41215909	A	G
17	41215909	A	C
17	41215908	C	T
17	41215908	C	G
17	41215908	C	A
17	41215907	C	T
17	41215907	C	G
17	41215907	C	A
17	41215906	C	T
17	41215906	C	G
17	41215906	C	A
17	41215905	A	T
17	41215905	A	G
17	41215905	A	C
17	41215904	T	G
17	41215904	T	C
17	41215904	T	A
17	41215903	C	T
17	41215903	C	G
17	41215903	C	A
17	41215902	A	T
17	41215902	A	G
17	41215902	A	C
17	41215901	A	T
17	41215901	A	G
17	41215901	A	C
17	41215900	T	G
17	41215900	T	C
17	41215900	T	A
17	41215899	C	T
17	41215899	C	G
17	41215899	C	A
17	41215898	G	T
17	41215898	G	C
17	41215898	G	A
17	41215897	A	T
17	41215897	A	G
17	41215897	A	C
17	41215896	T	G
17	41215896	T	C
17	41215896	T	A
17	41215895	A	T
17	41215895	A	G
17	41215895	A	C
17	41215894	A	T
17	41215894	A	G
17	41215894	A	C
17	41215893	A	T
17	41215893	A	G
17	41215893	A	C
17	41215892	G	T
17	41215892	G	C
17	41215892	G	A
17	41215891	A	T
17	41215891	A	G
17	41215891	A	C
17	41215890	C	T
17	41215890	C	G
17	41215890	C	A
17	41215889	A	T
17	41215889	A	G
17	41215889	A	C
17	41215888	T	G
17	41215888	T	C
17	41215888	T	A
17	41215887	T	G
17	41215887	T	C
17	41215887	T	A
17	41215886	C	T
17	41215886	C	G
17	41215886	C	A
17	41215885	A	T
17	41215885	A	G
17	41215885	A	C
17	41215884	T	G
17	41215884	T	C
17	41215884	T	A
17	41215883	A	T
17	41215883	A	G
17	41215883	A	C
17	41215882	T	G
17	41215882	T	C
17	41215882	T	A
17	41215881	T	G
17	41215881	T	C
17	41215881	T	A
17	41215420	A	T
17	41215420	A	G
17	41215420	A	C
17	41215419	C	T
17	41215419	C	G
17	41215419	C	A
17	41215418	A	T
17	41215418	A	G
17	41215418	A	C
17	41215417	T	G
17	41215417	T	C
17	41215417	T	A
17	41215416	T	G
17	41215416	T	C
17	41215416	T	A
17	41215415	G	T
17	41215415	G	C
17	41215415	G	A
17	41215414	G	T
17	41215414	G	C
17	41215414	G	A
17	41215413	A	T
17	41215413	A	G
17	41215413	A	C
17	41215412	C	T
17	41215412	C	G
17	41215412	C	A
17	41215411	A	T
17	41215411	A	G
17	41215411	A	C
17	41215410	G	T
17	41215410	G	C
17	41215410	G	A
17	41215409	A	T
17	41215409	A	G
17	41215409	A	C
17	41215408	A	T
17	41215408	A	G
17	41215408	A	C
17	41215407	A	T
17	41215407	A	G
17	41215407	A	C
17	41215406	A	T
17	41215406	A	G
17	41215406	A	C
17	41215405	G	T
17	41215405	G	C
17	41215405	G	A
17	41215404	A	T
17	41215404	A	G
17	41215404	A	C
17	41215403	T	G
17	41215403	T	C
17	41215403	T	A
17	41215402	A	T
17	41215402	A	G
17	41215402	A	C
17	41215401	C	T
17	41215401	C	G
17	41215401	C	A
17	41215400	T	G
17	41215400	T	C
17	41215400	T	A
17	41215399	A	T
17	41215399	A	G
17	41215399	A	C
17	41215398	G	T
17	41215398	G	C
17	41215398	G	A
17	41215397	A	T
17	41215397	A	G
17	41215397	A	C
17	41215396	G	T
17	41215396	G	C
17	41215396	G	A
17	41215395	A	T
17	41215395	A	G
17	41215395	A	C
17	41215394	A	T
17	41215394	A	G
17	41215394	A	C
17	41215393	A	T
17	41215393	A	G
17	41215393	A	C
17	41215392	T	G
17	41215392	T	C
17	41215392	T	A
17	41215391	C	T
17	41215391	C	G
17	41215391	C	A
17	41215390	C	T
17	41215390	C	G
17	41215390	C	A
17	41215389	C	T
17	41215389	C	G
17	41215389	C	A
17	41215388	C	T
17	41215388	C	G
17	41215388	C	A
17	41215387	A	T
17	41215387	A	G
17	41215387	A	C
17	41215386	C	T
17	41215386	C	G
17	41215386	C	A
17	41215385	T	C
17	41215385	T	A
17	41215382	G	T
17	41215382	G	C
17	41215382	G	A
17	41215381	T	G
17	41215381	T	C
17	41215381	T	A
17	41215380	C	T
17	41215380	C	G
17	41215380	C	A
17	41215379	A	T
17	41215379	A	G
17	41215379	A	C
17	41215378	G	T
17	41215378	G	C
17	41215378	G	A
17	41215377	A	T
17	41215377	A	G
17	41215377	A	C
17	41215376	T	G
17	41215376	T	C
17	41215376	T	A
17	41215375	A	T
17	41215375	A	G
17	41215375	A	C
17	41215374	A	T
17	41215374	A	G
17	41215374	A	C
17	41215373	T	G
17	41215373	T	C
17	41215373	T	A
17	41215372	T	G
17	41215372	T	C
17	41215372	T	A
17	41215371	T	G
17	41215371	T	C
17	41215371	T	A
17	41215370	C	T
17	41215370	C	G
17	41215370	C	A
17	41215369	T	G
17	41215369	T	C
17	41215369	T	A
17	41215368	T	G
17	41215368	T	C
17	41215368	T	A
17	41215367	T	G
17	41215367	T	C
17	41215367	T	A
17	41215366	C	T
17	41215366	C	G
17	41215366	C	A
17	41215365	T	G
17	41215365	T	C
17	41215365	T	A
17	41215364	T	G
17	41215364	T	C
17	41215364	T	A
17	41215363	T	G
17	41215363	T	C
17	41215363	T	A
17	41215362	T	G
17	41215362	T	C
17	41215362	T	A
17	41215361	T	G
17	41215361	T	C
17	41215361	T	A
17	41215360	A	T
17	41215360	A	G
17	41215360	A	C
17	41215359	C	T
17	41215359	C	G
17	41215359	C	A
17	41215358	G	T
17	41215358	G	C
17	41215358	G	A
17	41215357	A	T
17	41215357	A	G
17	41215357	A	C
17	41215356	C	T
17	41215356	C	G
17	41215356	C	A
17	41215355	T	G
17	41215355	T	C
17	41215355	T	A
17	41215354	T	G
17	41215354	T	C
17	41215354	T	A
17	41215353	A	T
17	41215353	A	G
17	41215353	A	C
17	41215352	C	T
17	41215352	C	G
17	41215352	C	A
17	41215351	T	G
17	41215351	T	C
17	41215351	T	A
17	41215350	C	T
17	41215350	C	G
17	41215350	C	A
17	41215349	C	T
17	41215349	C	G
17	41215349	C	A
17	41215348	A	T
17	41215348	A	G
17	41215348	A	C
17	41215347	T	G
17	41215347	T	C
17	41215347	T	A
17	41215346	T	G
17	41215346	T	C
17	41215346	T	A
17	41215345	C	T
17	41215345	C	G
17	41215345	C	A
17	41215344	A	T
17	41215344	A	G
17	41215344	A	C
17	41215343	T	G
17	41215343	T	C
17	41215343	T	A
17	41215342	G	T
17	41215342	G	C
17	41215342	G	A
17	41215341	A	T
17	41215341	A	G
17	41215341	A	C
17	41215340	A	T
17	41215340	A	G
17	41215340	A	C
17	41215339	C	T
17	41215339	C	G
17	41215339	C	A
17	41215338	T	G
17	41215338	T	C
17	41215338	T	A
17	41215337	A	T
17	41215337	A	G
17	41215337	A	C
17	41215336	C	T
17	41215336	C	G
17	41215336	C	A
17	41215335	A	T
17	41215335	A	G
17	41215335	A	C
17	41215334	A	T
17	41215334	A	G
17	41215334	A	C
17	41215333	T	G
17	41215333	T	C
17	41215333	T	A
17	41215332	G	T
17	41215332	G	C
17	41215332	G	A
17	41215331	T	G
17	41215331	T	C
17	41215331	T	A
17	41215330	T	G
17	41215330	T	C
17	41215330	T	A
17	41215329	T	G
17	41215329	T	C
17	41215329	T	A
17	41215328	G	T
17	41215328	G	C
17	41215328	G	A
17	41215327	A	T
17	41215327	A	G
17	41215327	A	C
17	41215326	T	G
17	41215326	T	C
17	41215326	T	A
17	41215325	T	G
17	41215325	T	C
17	41215325	T	A
17	41215324	G	T
17	41215324	G	C
17	41215324	G	A
17	41215323	G	C
17	41215322	T	G
17	41215322	T	C
17	41215322	T	A
17	41215321	C	T
17	41215321	C	G
17	41215321	C	A
17	41215320	T	G
17	41215320	T	C
17	41215320	T	A
17	41209162	A	T
17	41209162	A	G
17	41209162	A	C
17	41209161	A	T
17	41209161	A	G
17	41209161	A	C
17	41209160	A	T
17	41209160	A	G
17	41209160	A	C
17	41209159	G	T
17	41209159	G	C
17	41209159	G	A
17	41209158	A	T
17	41209158	A	G
17	41209158	A	C
17	41209157	A	T
17	41209157	A	G
17	41209157	A	C
17	41209156	A	T
17	41209156	A	G
17	41209156	A	C
17	41209155	G	T
17	41209155	G	C
17	41209155	G	A
17	41209154	T	G
17	41209154	T	C
17	41209154	T	A
17	41209153	C	T
17	41209153	C	G
17	41209153	C	A
17	41209152	G	T
17	41209152	G	C
17	41209152	G	A
17	41209151	T	G
17	41209151	T	C
17	41209151	T	A
17	41209150	A	T
17	41209150	A	G
17	41209150	A	C
17	41209149	C	T
17	41209149	C	G
17	41209149	C	A
17	41209148	T	G
17	41209148	T	C
17	41209148	T	A
17	41209147	A	T
17	41209147	A	G
17	41209147	A	C
17	41209146	A	T
17	41209146	A	G
17	41209146	A	C
17	41209145	A	T
17	41209145	A	G
17	41209145	A	C
17	41209144	A	T
17	41209144	A	G
17	41209144	A	C
17	41209143	C	T
17	41209143	C	G
17	41209143	C	A
17	41209142	T	G
17	41209142	T	C
17	41209142	T	A
17	41209141	T	G
17	41209141	T	C
17	41209141	T	A
17	41209140	C	T
17	41209140	C	G
17	41209140	C	A
17	41209139	A	T
17	41209139	A	G
17	41209139	A	C
17	41209138	G	T
17	41209138	G	C
17	41209138	G	A
17	41209137	T	G
17	41209137	T	C
17	41209137	T	A
17	41209136	C	T
17	41209136	C	G
17	41209136	C	A
17	41209135	T	G
17	41209135	T	C
17	41209135	T	A
17	41209134	C	T
17	41209134	C	G
17	41209134	C	A
17	41209133	C	T
17	41209133	C	G
17	41209133	C	A
17	41209132	T	G
17	41209132	T	C
17	41209132	T	A
17	41209131	C	T
17	41209131	C	G
17	41209131	C	A
17	41209130	T	G
17	41209130	T	C
17	41209130	T	A
17	41209129	A	T
17	41209129	A	G
17	41209129	A	C
17	41209128	C	G
17	41209127	A	G
17	41209127	A	C
17	41209125	C	T
17	41209125	C	G
17	41209124	A	T
17	41209124	A	G
17	41209123	G	T
17	41209123	G	C
17	41209123	G	A
17	41209122	T	G
17	41209122	T	C
17	41209122	T	A
17	41209121	T	G
17	41209121	T	C
17	41209121	T	A
17	41209120	A	T
17	41209120	A	G
17	41209120	A	C
17	41209119	C	T
17	41209119	C	G
17	41209119	C	A
17	41209118	C	T
17	41209118	C	G
17	41209118	C	A
17	41209117	T	G
17	41209117	T	C
17	41209117	T	A
17	41209116	T	G
17	41209116	T	C
17	41209116	T	A
17	41209115	C	T
17	41209115	C	G
17	41209115	C	A
17	41209114	T	G
17	41209114	T	C
17	41209114	T	A
17	41209113	T	G
17	41209113	T	C
17	41209113	T	A
17	41209112	T	G
17	41209112	T	C
17	41209112	T	A
17	41209111	G	T
17	41209111	G	C
17	41209111	G	A
17	41209110	G	T
17	41209110	G	C
17	41209110	G	A
17	41209109	T	G
17	41209109	T	C
17	41209109	T	A
17	41209108	G	T
17	41209108	G	C
17	41209108	G	A
17	41209107	G	T
17	41209107	G	C
17	41209107	G	A
17	41209106	T	G
17	41209106	T	C
17	41209106	T	A
17	41209105	T	G
17	41209105	T	C
17	41209105	T	A
17	41209104	C	T
17	41209104	C	G
17	41209104	C	A
17	41209103	C	T
17	41209103	C	G
17	41209103	C	A
17	41209102	A	T
17	41209102	A	G
17	41209102	A	C
17	41209101	G	T
17	41209101	G	C
17	41209101	G	A
17	41209100	G	T
17	41209100	G	C
17	41209100	G	A
17	41209099	T	G
17	41209099	T	C
17	41209099	T	A
17	41209098	T	G
17	41209098	T	C
17	41209098	T	A
17	41209097	T	G
17	41209097	T	C
17	41209097	T	A
17	41209096	C	T
17	41209096	C	G
17	41209096	C	A
17	41209095	G	T
17	41209095	G	C
17	41209095	G	A
17	41209094	C	T
17	41209094	C	G
17	41209094	C	A
17	41209093	T	G
17	41209093	T	C
17	41209093	T	A
17	41209092	C	T
17	41209092	C	G
17	41209092	C	A
17	41209091	G	T
17	41209091	G	C
17	41209091	G	A
17	41209090	T	G
17	41209090	T	C
17	41209090	T	A
17	41209089	T	G
17	41209089	T	C
17	41209089	T	A
17	41209088	C	T
17	41209088	C	G
17	41209088	C	A
17	41209087	T	G
17	41209087	T	C
17	41209087	T	A
17	41209086	C	T
17	41209086	C	G
17	41209086	C	A
17	41209085	T	G
17	41209085	T	C
17	41209085	T	A
17	41209084	T	G
17	41209084	T	C
17	41209084	T	A
17	41209083	A	T
17	41209083	A	G
17	41209083	A	C
17	41209082	G	T
17	41209082	G	C
17	41209082	G	A
17	41209081	G	T
17	41209081	G	C
17	41209081	G	A
17	41209080	G	T
17	41209080	G	C
17	41209080	G	A
17	41209079	T	G
17	41209079	T	C
17	41209079	T	A
17	41209078	C	T
17	41209078	C	G
17	41209078	C	A
17	41209077	C	T
17	41209077	C	G
17	41209077	C	A
17	41209076	T	G
17	41209076	T	C
17	41209076	T	A
17	41209075	G	T
17	41209075	G	C
17	41209075	G	A
17	41209074	T	G
17	41209074	T	C
17	41209074	T	A
17	41209073	C	T
17	41209073	C	G
17	41209073	C	A
17	41209072	T	G
17	41209072	T	C
17	41209072	T	A
17	41209071	T	G
17	41209071	T	C
17	41209071	T	A
17	41209070	T	G
17	41209070	T	C
17	41209070	T	A
17	41209069	C	T
17	41209069	C	G
17	41209069	C	A
17	41209068	C	T
17	41209068	C	G
17	41209068	C	A
17	41209067	A	T
17	41209067	A	G
17	41209067	A	C
17	41209066	T	G
17	41209066	T	C
17	41209066	T	A
17	41209065	T	G
17	41209065	T	C
17	41209065	T	A
17	41209064	T	G
17	41209064	T	C
17	41209064	T	A
17	41209063	C	T
17	41209063	C	G
17	41209063	C	A
17	41209062	G	T
17	41209062	G	C
17	41209062	G	A
17	41209061	A	T
17	41209061	A	G
17	41209061	A	C
17	41209060	G	T
17	41209060	G	C
17	41209060	G	A
17	41209059	G	C
17	41209059	G	A
17	41203156	G	T
17	41203156	G	C
17	41203156	G	A
17	41203155	A	T
17	41203155	A	G
17	41203155	A	C
17	41203154	G	T
17	41203154	G	C
17	41203154	G	A
17	41203153	A	T
17	41203153	A	G
17	41203153	A	C
17	41203152	G	T
17	41203152	G	C
17	41203152	G	A
17	41203151	A	T
17	41203151	A	G
17	41203151	A	C
17	41203150	A	T
17	41203150	A	G
17	41203150	A	C
17	41203149	G	T
17	41203149	G	C
17	41203149	G	A
17	41203148	G	T
17	41203148	G	C
17	41203148	G	A
17	41203147	A	T
17	41203147	A	G
17	41203147	A	C
17	41203146	G	T
17	41203146	G	C
17	41203146	G	A
17	41203145	A	T
17	41203145	A	G
17	41203145	A	C
17	41203144	G	T
17	41203144	G	C
17	41203144	G	A
17	41203143	A	T
17	41203143	A	G
17	41203143	A	C
17	41203142	A	T
17	41203142	A	G
17	41203142	A	C
17	41203141	G	T
17	41203141	G	C
17	41203141	G	A
17	41203140	A	T
17	41203140	A	G
17	41203140	A	C
17	41203139	A	T
17	41203139	A	G
17	41203139	A	C
17	41203138	G	T
17	41203138	G	C
17	41203138	G	A
17	41203137	G	T
17	41203137	G	C
17	41203137	G	A
17	41203136	T	G
17	41203136	T	C
17	41203136	T	A
17	41203135	C	T
17	41203135	C	G
17	41203135	C	A
17	41203134	T	G
17	41203134	T	C
17	41203134	T	A
17	41203133	A	T
17	41203133	A	G
17	41203133	A	C
17	41203132	G	T
17	41203132	G	C
17	41203132	G	A
17	41203131	A	T
17	41203131	A	G
17	41203131	A	C
17	41203130	A	T
17	41203130	A	G
17	41203130	A	C
17	41203129	G	T
17	41203129	G	C
17	41203129	G	A
17	41203128	T	G
17	41203128	T	C
17	41203128	T	A
17	41203127	C	T
17	41203127	C	G
17	41203127	C	A
17	41203126	C	T
17	41203126	C	G
17	41203126	C	A
17	41203125	C	G
17	41203124	C	G
17	41203124	C	A
17	41203122	G	T
17	41203122	G	C
17	41203121	A	T
17	41203121	A	G
17	41203120	T	G
17	41203120	T	C
17	41203120	T	A
17	41203119	C	T
17	41203119	C	G
17	41203119	C	A
17	41203118	T	G
17	41203118	T	C
17	41203118	T	A
17	41203117	T	G
17	41203117	T	C
17	41203117	T	A
17	41203116	T	G
17	41203116	T	C
17	41203116	T	A
17	41203115	A	T
17	41203115	A	G
17	41203115	A	C
17	41203114	G	T
17	41203114	G	C
17	41203114	G	A
17	41203113	A	T
17	41203113	A	G
17	41203113	A	C
17	41203112	C	T
17	41203112	C	G
17	41203112	C	A
17	41203111	A	T
17	41203111	A	G
17	41203111	A	C
17	41203110	A	T
17	41203110	A	G
17	41203110	A	C
17	41203109	C	T
17	41203109	C	G
17	41203109	C	A
17	41203108	G	T
17	41203108	G	C
17	41203108	G	A
17	41203107	A	T
17	41203107	A	C
17	41203106	T	G
17	41203106	T	C
17	41203106	T	A
17	41203105	A	T
17	41203105	A	G
17	41203105	A	C
17	41203104	C	T
17	41203104	C	G
17	41203104	C	A
17	41203103	C	T
17	41203103	C	G
17	41203103	C	A
17	41203102	C	T
17	41203102	C	G
17	41203102	C	A
17	41203101	G	T
17	41203101	G	C
17	41203101	G	A
17	41203100	G	T
17	41203100	G	C
17	41203100	G	A
17	41203099	G	T
17	41203099	G	C
17	41203099	G	A
17	41203098	A	T
17	41203098	A	G
17	41203098	A	C
17	41203097	A	T
17	41203097	A	G
17	41203097	A	C
17	41203096	G	T
17	41203096	G	A
17	41203095	T	G
17	41203095	T	C
17	41203095	T	A
17	41203094	G	T
17	41203094	G	C
17	41203094	G	A
17	41203093	G	T
17	41203093	G	C
17	41203093	G	A
17	41203092	T	G
17	41203092	T	C
17	41203092	T	A
17	41203091	T	G
17	41203091	T	C
17	41203091	T	A
17	41203090	G	T
17	41203090	G	C
17	41203090	G	A
17	41203089	T	G
17	41203089	T	C
17	41203089	T	A
17	41203088	A	T
17	41203088	A	G
17	41203088	A	C
17	41203087	C	T
17	41203087	C	G
17	41203087	C	A
17	41203086	G	T
17	41203086	G	C
17	41203086	G	A
17	41203085	G	T
17	41203085	G	C
17	41203085	G	A
17	41203084	G	T
17	41203084	G	C
17	41203084	G	A
17	41203083	T	G
17	41203083	T	C
17	41203083	T	A
17	41203082	G	T
17	41203082	G	C
17	41203082	G	A
17	41203081	T	G
17	41203081	T	C
17	41203081	T	A
17	41203080	C	T
17	41203080	C	A
17	41203079	C	T
17	41203079	C	G
17	41203079	C	A
17	41203078	A	T
17	41203078	A	G
17	41203078	A	C
17	41203077	T	G
17	41203077	T	C
17	41203077	T	A
17	41203076	T	G
17	41203076	T	C
17	41203076	T	A
17	41203075	C	T
17	41203075	C	G
17	41203075	C	A
17	41203074	T	G
17	41203074	T	C
17	41203074	T	A
17	41203073	C	T
17	41203073	C	G
17	41203073	C	A
17	41203072	G	T
17	41203072	G	C
17	41203072	G	A
17	41203071	G	T
17	41203071	G	C
17	41203071	G	A
17	41203070	A	T
17	41203070	A	G
17	41203070	A	C
17	41203069	C	T
17	41203069	C	G
17	41203069	C	A
17	41203068	C	T
17	41203068	C	A
17	41203067	C	T
17	41203067	C	G
17	41203066	T	G
17	41203066	T	C
17	41203066	T	A
17	41203065	C	T
17	41203065	C	G
17	41203065	C	A
17	41203064	T	G
17	41203064	T	C
17	41203064	T	A
17	41203063	T	G
17	41203063	T	C
17	41203063	T	A
17	41203062	G	T
17	41203062	G	C
17	41203062	G	A
17	41203061	G	T
17	41203061	G	C
17	41203061	G	A
17	41203060	G	T
17	41203060	G	C
17	41203060	G	A
17	41203059	G	T
17	41203059	G	C
17	41203059	G	A
17	41203058	T	G
17	41203058	T	C
17	41203058	T	A
17	41203057	C	T
17	41203057	C	G
17	41203057	C	A
17	41201224	T	G
17	41201224	T	C
17	41201224	T	A
17	41201223	A	T
17	41201223	A	G
17	41201223	A	C
17	41201222	C	T
17	41201222	C	G
17	41201222	C	A
17	41201221	A	T
17	41201221	A	G
17	41201221	A	C
17	41201220	G	T
17	41201220	G	C
17	41201220	G	A
17	41201219	G	T
17	41201219	G	C
17	41201219	G	A
17	41201218	T	G
17	41201218	T	C
17	41201218	T	A
17	41201217	A	T
17	41201217	A	G
17	41201217	A	C
17	41201216	A	T
17	41201216	A	G
17	41201216	A	C
17	41201215	A	T
17	41201215	A	G
17	41201215	A	C
17	41201214	A	T
17	41201214	A	G
17	41201214	A	C
17	41201213	T	G
17	41201213	T	C
17	41201213	T	A
17	41201212	C	T
17	41201212	C	G
17	41201212	C	A
17	41201211	T	G
17	41201211	T	C
17	41201211	T	A
17	41201210	A	T
17	41201210	A	G
17	41201210	A	C
17	41201209	G	T
17	41201209	G	C
17	41201209	G	A
17	41201208	T	G
17	41201208	T	C
17	41201208	T	A
17	41201207	T	G
17	41201207	T	C
17	41201207	T	A
17	41201206	G	C
17	41201205	A	G
17	41201205	A	C
17	41201203	C	T
17	41201203	C	G
17	41201203	C	A
17	41201202	T	G
17	41201202	T	A
17	41201201	T	G
17	41201201	T	C
17	41201201	T	A
17	41201200	A	T
17	41201200	A	G
17	41201200	A	C
17	41201199	C	T
17	41201199	C	G
17	41201199	C	A
17	41201198	C	T
17	41201198	C	G
17	41201198	C	A
17	41201197	T	G
17	41201197	T	C
17	41201197	T	A
17	41201196	A	T
17	41201196	A	G
17	41201196	A	C
17	41201195	C	T
17	41201195	C	G
17	41201195	C	A
17	41201194	C	T
17	41201194	C	G
17	41201194	C	A
17	41201193	A	T
17	41201193	A	G
17	41201193	A	C
17	41201192	T	G
17	41201192	T	C
17	41201192	T	A
17	41201191	G	T
17	41201191	G	C
17	41201191	G	A
17	41201190	T	G
17	41201190	T	C
17	41201190	T	A
17	41201189	C	T
17	41201189	C	G
17	41201189	C	A
17	41201188	G	T
17	41201188	G	C
17	41201188	G	A
17	41201187	A	T
17	41201187	A	G
17	41201187	A	C
17	41201186	C	T
17	41201186	C	G
17	41201186	C	A
17	41201185	A	T
17	41201185	A	G
17	41201185	A	C
17	41201184	C	T
17	41201184	C	G
17	41201184	C	A
17	41201183	A	T
17	41201183	A	G
17	41201183	A	C
17	41201182	C	T
17	41201182	C	G
17	41201182	C	A
17	41201181	C	T
17	41201181	C	G
17	41201181	C	A
17	41201180	A	T
17	41201180	A	G
17	41201180	A	C
17	41201179	C	T
17	41201179	C	G
17	41201179	C	A
17	41201178	G	T
17	41201178	G	C
17	41201178	G	A
17	41201177	A	T
17	41201177	A	G
17	41201177	A	C
17	41201176	A	T
17	41201176	A	G
17	41201176	A	C
17	41201175	G	T
17	41201175	G	C
17	41201175	G	A
17	41201174	A	T
17	41201174	A	G
17	41201174	A	C
17	41201173	C	T
17	41201173	C	G
17	41201173	C	A
17	41201172	A	T
17	41201172	A	G
17	41201172	A	C
17	41201171	C	T
17	41201171	C	G
17	41201171	C	A
17	41201170	C	T
17	41201170	C	G
17	41201170	C	A
17	41201169	A	T
17	41201169	A	G
17	41201169	A	C
17	41201168	C	T
17	41201168	C	G
17	41201168	C	A
17	41201167	T	G
17	41201167	T	C
17	41201167	T	A
17	41201166	T	G
17	41201166	T	C
17	41201166	T	A
17	41201165	C	T
17	41201165	C	G
17	41201165	C	A
17	41201164	C	T
17	41201164	C	G
17	41201164	C	A
17	41201163	T	G
17	41201163	T	C
17	41201163	T	A
17	41201162	C	T
17	41201162	C	G
17	41201162	C	A
17	41201161	G	T
17	41201161	G	C
17	41201161	G	A
17	41201160	A	T
17	41201160	A	G
17	41201160	A	C
17	41201159	A	T
17	41201159	A	G
17	41201159	A	C
17	41201158	A	T
17	41201158	A	G
17	41201158	A	C
17	41201157	G	T
17	41201157	G	C
17	41201157	G	A
17	41201156	T	G
17	41201156	T	C
17	41201156	T	A
17	41201155	A	T
17	41201155	A	G
17	41201155	A	C
17	41201154	G	T
17	41201154	G	C
17	41201154	G	A
17	41201153	T	G
17	41201153	T	C
17	41201153	T	A
17	41201152	A	T
17	41201152	A	G
17	41201152	A	C
17	41201151	A	T
17	41201151	A	G
17	41201151	A	C
17	41201150	G	T
17	41201150	G	C
17	41201150	G	A
17	41201149	T	G
17	41201149	T	C
17	41201149	T	A
17	41201148	G	T
17	41201148	G	C
17	41201148	G	A
17	41201147	G	T
17	41201147	G	C
17	41201147	G	A
17	41201146	G	T
17	41201146	G	C
17	41201146	G	A
17	41201145	A	T
17	41201145	A	G
17	41201145	A	C
17	41201144	A	T
17	41201144	A	G
17	41201144	A	C
17	41201143	C	T
17	41201143	C	G
17	41201143	C	A
17	41201142	C	T
17	41201142	C	G
17	41201142	C	A
17	41201141	G	T
17	41201141	G	C
17	41201141	G	A
17	41201140	T	G
17	41201140	T	C
17	41201140	T	A
17	41201139	G	T
17	41201139	G	C
17	41201139	G	A
17	41201138	T	G
17	41201138	T	C
17	41201138	T	A
17	41201137	C	T
17	41201137	C	G
17	41201137	C	A
17	41201136	A	T
17	41201136	A	G
17	41201136	A	C
17	41201135	T	G
17	41201135	T	C
17	41201135	T	A
17	41201134	T	G
17	41201134	T	C
17	41201134	T	A
17	41201133	C	T
17	41201133	C	G
17	41201133	C	A
17	41201132	A	T
17	41201132	A	G
17	41201132	A	C
17	41201131	T	G
17	41201131	T	C
17	41201131	T	A
17	41201130	A	T
17	41201130	A	G
17	41201130	A	C
17	41201129	A	T
17	41201129	A	G
17	41201129	A	C
17	41201128	C	T
17	41201128	C	G
17	41201127	C	T
17	41201127	C	G
17	41201126	C	T
17	41201126	C	G
17	41201126	C	A
17	41201125	A	T
17	41201125	A	G
17	41201125	A	C
17	41201124	C	T
17	41201124	C	G
17	41201124	C	A
17	41201123	G	T
17	41201123	G	C
17	41201122	G	T
17	41201122	G	C
17	41201122	G	A
17	41201121	G	T
17	41201121	G	C
17	41201121	G	A
17	41201120	A	T
17	41201120	A	G
17	41201120	A	C
17	41199734	A	T
17	41199734	A	G
17	41199734	A	C
17	41199733	G	T
17	41199733	G	C
17	41199733	G	A
17	41199732	G	T
17	41199732	G	C
17	41199732	G	A
17	41199731	A	T
17	41199731	A	G
17	41199731	A	C
17	41199730	C	T
17	41199730	C	G
17	41199730	C	A
17	41199729	C	T
17	41199729	C	G
17	41199729	C	A
17	41199728	C	T
17	41199728	C	G
17	41199728	C	A
17	41199727	C	T
17	41199727	C	G
17	41199727	C	A
17	41199726	T	G
17	41199726	T	C
17	41199726	T	A
17	41199725	A	T
17	41199725	A	G
17	41199725	A	C
17	41199724	G	T
17	41199724	G	C
17	41199724	G	A
17	41199723	G	T
17	41199723	G	C
17	41199723	G	A
17	41199722	T	G
17	41199722	T	C
17	41199722	T	A
17	41199721	C	T
17	41199721	C	G
17	41199721	C	A
17	41199720	C	T
17	41199720	C	G
17	41199720	C	A
17	41199719	C	T
17	41199719	C	G
17	41199719	C	A
17	41199718	A	T
17	41199718	A	G
17	41199718	A	C
17	41199717	C	T
17	41199717	C	G
17	41199717	C	A
17	41199716	A	T
17	41199716	A	G
17	41199716	A	C
17	41199715	G	T
17	41199715	G	C
17	41199715	G	A
17	41199714	G	T
17	41199714	G	C
17	41199714	G	A
17	41199713	T	G
17	41199713	T	C
17	41199713	T	A
17	41199712	G	T
17	41199712	G	C
17	41199712	G	A
17	41199711	G	T
17	41199711	G	C
17	41199711	G	A
17	41199710	G	T
17	41199710	G	C
17	41199710	G	A
17	41199709	T	G
17	41199709	T	C
17	41199709	T	A
17	41199708	T	G
17	41199708	T	C
17	41199708	T	A
17	41199707	A	T
17	41199707	A	G
17	41199707	A	C
17	41199706	A	T
17	41199706	A	G
17	41199706	A	C
17	41199705	C	G
17	41199704	A	G
17	41199704	A	C
17	41199702	C	T
17	41199701	A	T
17	41199701	A	G
17	41199700	A	T
17	41199700	A	G
17	41199700	A	C
17	41199699	C	T
17	41199699	C	G
17	41199699	C	A
17	41199698	A	T
17	41199698	A	G
17	41199698	A	C
17	41199697	C	T
17	41199697	C	G
17	41199697	C	A
17	41199696	G	T
17	41199696	G	C
17	41199696	G	A
17	41199695	T	G
17	41199695	T	C
17	41199695	T	A
17	41199694	C	T
17	41199694	C	G
17	41199694	C	A
17	41199693	G	T
17	41199693	G	C
17	41199693	G	A
17	41199692	G	T
17	41199692	G	C
17	41199692	G	A
17	41199691	T	G
17	41199691	T	C
17	41199691	T	A
17	41199690	C	T
17	41199690	C	G
17	41199690	C	A
17	41199689	T	G
17	41199689	T	C
17	41199689	T	A
17	41199688	A	T
17	41199688	A	G
17	41199688	A	C
17	41199687	C	T
17	41199687	C	G
17	41199687	C	A
17	41199686	G	T
17	41199686	G	C
17	41199686	G	A
17	41199685	G	T
17	41199685	G	C
17	41199685	G	A
17	41199684	A	T
17	41199684	A	G
17	41199684	A	C
17	41199683	C	T
17	41199683	C	G
17	41199683	C	A
17	41199682	C	T
17	41199682	C	G
17	41199682	C	A
17	41199681	T	G
17	41199681	T	C
17	41199681	T	A
17	41199680	G	T
17	41199680	G	C
17	41199680	G	A
17	41199679	T	G
17	41199679	T	C
17	41199679	T	A
17	41199678	C	T
17	41199678	C	G
17	41199678	C	A
17	41199677	T	G
17	41199677	T	C
17	41199677	T	A
17	41199676	C	T
17	41199676	C	G
17	41199676	C	A
17	41199675	C	T
17	41199675	C	G
17	41199675	C	A
17	41199674	T	G
17	41199674	T	C
17	41199674	T	A
17	41199673	G	T
17	41199673	G	C
17	41199673	G	A
17	41199672	T	G
17	41199672	T	C
17	41199672	T	A
17	41199671	T	G
17	41199671	T	C
17	41199671	T	A
17	41199670	A	T
17	41199670	A	G
17	41199670	A	C
17	41199669	C	T
17	41199669	C	G
17	41199669	C	A
17	41199668	C	T
17	41199668	C	G
17	41199668	C	A
17	41199667	G	T
17	41199667	G	C
17	41199667	G	A
17	41199666	A	T
17	41199666	A	G
17	41199666	A	C
17	41199665	A	T
17	41199665	A	G
17	41199665	A	C
17	41199664	G	T
17	41199664	G	C
17	41199664	G	A
17	41199663	G	T
17	41199663	G	C
17	41199663	G	A
17	41199662	T	G
17	41199662	T	C
17	41199662	T	A
17	41199661	A	T
17	41199661	A	G
17	41199661	A	C
17	41199660	C	T
17	41199660	C	G
17	41199660	C	A
17	41199659	C	T
17	41199659	C	G
17	41199659	C	A
17	41199658	A	T
17	41199658	A	G
17	41199657	T	G
17	41199657	T	C
17	41199657	T	A
17	41199656	T	G
17	41199656	T	C
17	41199656	T	A
17	41199655	C	T
17	41199655	C	G
17	41199655	C	A
17	41199654	C	T
17	41199654	C	G
17	41199654	C	A
17	41199653	A	T
17	41199653	A	G
17	41199653	A	C
17	41199652	C	T
17	41199652	C	G
17	41199652	C	A
17	41199651	G	T
17	41199651	G	C
17	41199650	G	T
17	41199650	G	C
17	41199650	G	A
17	41199649	A	T
17	41199649	A	G
17	41199649	A	C
17	41199648	C	T
17	41199648	C	G
17	41199648	C	A
17	41199647	G	T
17	41199647	G	C
17	41199647	G	A
17	41199646	T	G
17	41199646	T	C
17	41199646	T	A
17	41199645	A	T
17	41199645	A	G
17	41199645	A	C
17	41199644	C	T
17	41199644	C	G
17	41199644	C	A
17	41199643	A	T
17	41199643	A	G
17	41199643	A	C
17	41199642	T	G
17	41199642	T	C
17	41199642	T	A
17	41199641	G	T
17	41199641	G	C
17	41199641	G	A
17	41199640	G	T
17	41199640	G	C
17	41199640	G	A
17	41199639	A	T
17	41199639	A	G
17	41199639	A	C
17	41199638	C	T
17	41199638	C	G
17	41199638	C	A
17	41199637	A	T
17	41199637	A	G
17	41199637	A	C
17	41199636	C	T
17	41199636	C	G
17	41199636	C	A
17	41199635	G	C
17	41199635	G	A
17	41197829	G	T
17	41197829	G	C
17	41197829	G	A
17	41197828	A	T
17	41197828	A	G
17	41197828	A	C
17	41197827	C	T
17	41197827	C	G
17	41197827	C	A
17	41197826	A	T
17	41197826	A	G
17	41197826	A	C
17	41197825	G	T
17	41197825	G	C
17	41197825	G	A
17	41197824	A	T
17	41197824	A	G
17	41197824	A	C
17	41197823	G	T
17	41197823	G	C
17	41197823	G	A
17	41197822	G	T
17	41197822	G	C
17	41197822	G	A
17	41197821	T	G
17	41197821	T	C
17	41197821	T	A
17	41197820	C	T
17	41197820	C	G
17	41197820	C	A
17	41197819	G	T
17	41197819	G	C
17	41197819	G	A
17	41197818	T	G
17	41197818	T	C
17	41197818	T	A
17	41197817	T	G
17	41197817	T	C
17	41197817	T	A
17	41197816	A	T
17	41197816	A	G
17	41197816	A	C
17	41197815	A	T
17	41197815	A	G
17	41197815	A	C
17	41197814	C	T
17	41197814	C	G
17	41197814	C	A
17	41197813	C	T
17	41197813	C	G
17	41197813	C	A
17	41197812	C	T
17	41197812	C	G
17	41197812	C	A
17	41197811	G	T
17	41197811	G	C
17	41197811	G	A
17	41197810	T	G
17	41197810	T	C
17	41197810	T	A
17	41197809	C	T
17	41197809	C	G
17	41197809	C	A
17	41197808	T	G
17	41197808	T	C
17	41197808	T	A
17	41197807	A	T
17	41197807	A	G
17	41197807	A	C
17	41197806	C	T
17	41197806	C	G
17	41197806	C	A
17	41197805	A	T
17	41197805	A	G
17	41197805	A	C
17	41197804	C	T
17	41197804	C	G
17	41197804	C	A
17	41197803	A	T
17	41197803	A	G
17	41197803	A	C
17	41197802	C	T
17	41197802	C	G
17	41197802	C	A
17	41197801	T	G
17	41197801	T	C
17	41197801	T	A
17	41197800	C	T
17	41197800	C	G
17	41197800	C	A
17	41197799	C	T
17	41197799	C	G
17	41197799	C	A
17	41197798	G	T
17	41197798	G	C
17	41197798	G	A
17	41197797	T	G
17	41197797	T	C
17	41197797	T	A
17	41197796	G	T
17	41197796	G	C
17	41197796	G	A
17	41197795	G	T
17	41197795	G	C
17	41197795	G	A
17	41197794	A	T
17	41197794	A	G
17	41197794	A	C
17	41197793	C	G
17	41197792	A	G
17	41197792	A	C
17	41197790	C	T
17	41197790	C	G
17	41197789	A	T
17	41197789	A	G
17	41197788	C	T
17	41197788	C	G
17	41197788	C	A
17	41197787	T	G
17	41197787	T	C
17	41197787	T	A
17	41197786	G	T
17	41197786	G	C
17	41197786	G	A
17	41197785	G	T
17	41197785	G	C
17	41197785	G	A
17	41197784	G	T
17	41197784	G	C
17	41197784	G	A
17	41197783	C	T
17	41197783	C	G
17	41197783	C	A
17	41197782	T	G
17	41197782	T	C
17	41197782	T	A
17	41197781	C	T
17	41197781	C	G
17	41197781	C	A
17	41197780	T	G
17	41197780	T	C
17	41197780	T	A
17	41197779	C	T
17	41197779	C	G
17	41197779	C	A
17	41197778	A	T
17	41197778	A	G
17	41197778	A	C
17	41197777	C	T
17	41197777	C	G
17	41197777	C	A
17	41197776	C	T
17	41197776	C	G
17	41197776	C	A
17	41197775	C	T
17	41197775	C	G
17	41197775	C	A
17	41197774	A	T
17	41197774	A	G
17	41197774	A	C
17	41197773	C	T
17	41197773	C	G
17	41197773	C	A
17	41197772	A	G
17	41197772	A	C
17	41197771	A	T
17	41197771	A	G
17	41197770	C	G
17	41197770	C	A
17	41197769	C	T
17	41197769	C	G
17	41197768	T	G
17	41197768	T	C
17	41197768	T	A
17	41197767	G	T
17	41197767	G	C
17	41197767	G	A
17	41197766	T	G
17	41197766	T	C
17	41197766	T	A
17	41197765	C	T
17	41197765	C	G
17	41197765	C	A
17	41197764	A	T
17	41197764	A	G
17	41197764	A	C
17	41197763	C	T
17	41197763	C	G
17	41197763	C	A
17	41197762	A	T
17	41197762	A	G
17	41197762	A	C
17	41197761	T	G
17	41197761	T	C
17	41197761	T	A
17	41197760	C	T
17	41197760	C	G
17	41197760	C	A
17	41197759	G	T
17	41197759	G	C
17	41197759	G	A
17	41197758	T	G
17	41197758	T	C
17	41197758	T	A
17	41197757	G	T
17	41197757	G	C
17	41197757	G	A
17	41197756	A	T
17	41197756	A	G
17	41197756	A	C
17	41197755	G	T
17	41197755	G	C
17	41197755	G	A
17	41197754	A	T
17	41197754	A	G
17	41197754	A	C
17	41197753	T	G
17	41197753	T	C
17	41197753	T	A
17	41197752	G	T
17	41197752	G	C
17	41197752	G	A
17	41197751	G	T
17	41197751	G	C
17	41197751	G	A
17	41197750	T	G
17	41197750	T	C
17	41197750	T	A
17	41197749	C	T
17	41197749	C	G
17	41197749	C	A
17	41197748	A	T
17	41197748	A	G
17	41197748	A	C
17	41197747	C	T
17	41197747	C	G
17	41197747	C	A
17	41197746	G	T
17	41197746	G	C
17	41197746	G	A
17	41197745	G	T
17	41197745	G	C
17	41197745	G	A
17	41197744	T	G
17	41197744	T	C
17	41197744	T	A
17	41197743	C	T
17	41197743	C	G
17	41197743	C	A
17	41197742	C	T
17	41197742	C	G
17	41197742	C	A
17	41197741	T	G
17	41197741	T	C
17	41197741	T	A
17	41197740	C	T
17	41197740	C	G
17	41197740	C	A
17	41197739	G	T
17	41197739	G	C
17	41197739	G	A
17	41197738	A	T
17	41197738	A	G
17	41197738	A	C
17	41197737	C	T
17	41197737	C	G
17	41197737	C	A
17	41197736	C	T
17	41197736	C	G
17	41197736	C	A
17	41197735	T	G
17	41197735	T	C
17	41197735	T	A
17	41197734	G	T
17	41197734	G	C
17	41197734	G	A
17	41197733	T	G
17	41197733	T	C
17	41197733	T	A
17	41197732	G	T
17	41197732	G	C
17	41197732	G	A
17	41197731	G	T
17	41197731	G	C
17	41197731	G	A
17	41197730	A	T
17	41197730	A	G
17	41197730	A	C
17	41197729	T	G
17	41197729	T	C
17	41197729	T	A
17	41197728	G	T
17	41197728	G	C
17	41197728	G	A
17	41197727	G	T
17	41197727	G	C
17	41197727	G	A
17	41197726	A	T
17	41197726	A	G
17	41197726	A	C
17	41197725	C	T
17	41197725	C	G
17	41197725	C	A
17	41197724	T	G
17	41197724	T	C
17	41197724	T	A
17	41197723	A	T
17	41197723	A	G
17	41197723	A	C
17	41197722	T	G
17	41197722	T	C
17	41197722	T	A
